Marcio Araujo | Delineamento de Experimentos - DDE
…
Resumo dos dados com contagem dos tratamentos

TC1 %>%
  group_by(TratC) %>%
  summarise(n())

## # A tibble: 101 x 2
##    TratC `n()`
##    <chr> <int>
##  1 C1        6
##  2 C10       6
##  3 C100      6
##  4 C11       6
##  5 C12       6
##  6 C13       6
##  7 C14       6
##  8 C15       6
##  9 C16       6
## 10 C17       6
## # ... with 91 more rows
…
