…
Dados <- Dados %>%
  mutate(IdadeAnos = Idade_meses/12)

Obtendo dataset com plantas vivas

Vivas <- Dados %>%
  group_by(Local, Clone, IdadeAnos) %>%
  filter(!is.na(VOL)) %>%
  summarise(PlantasVivas = n())

## `summarise()` has grouped output by 'Local', 'Clone'. You can override using the `.groups` argument.

Vivas

## # A tibble: 75 x 4
## # Groups:   Local, Clone [25]
##    Local Clone  IdadeAnos PlantasVivas
##    <dbl> <chr>      <dbl>        <int>
##  1     1 Clone1      2.33          159
##  2     1 Clone1      4.25          159
##  3     1 Clone1      6.25          159
##  4     1 Clone3      2.33          160
##  5     1 Clone3      4.25          159
##  6     1 Clone3      6.25          159
##  7     1 Clone4      2.33          119
##  8     1 Clone4      4.25          119
##  9     1 Clone4      6.25          118
## 10     1 Clone6      2.33          114
## # ... with 65 more rows

Obtendo dataset com total de plantas

TotalPlantas <- Dados %>%
  group_by(Local, Clone, IdadeAnos) %>%
  summarise(TotalPlantas = n())

## `summarise()` has grouped output by 'Local', 'Clone'. You can override using the `.groups` argument.

TotalPlantas

## # A tibble: 75 x 4
## # Groups:   Local, Clone [25]
##    Local Clone  IdadeAnos TotalPlantas
##    <dbl> <chr>      <dbl>        <int>
##  1     1 Clone1      2.33          160
##  2     1 Clone1      4.25          160
##  3     1 Clone1      6.25          160
##  4     1 Clone3      2.33          160
##  5     1 Clone3      4.25          160
##  6     1 Clone3      6.25          160
##  7     1 Clone4      2.33          160
##  8     1 Clone4      4.25          160
##  9     1 Clone4      6.25          160
## 10     1 Clone6      2.33          160
## # ... with 65 more rows
…
Obtendo o IMA

Obtendo o volume total por Clone em cada Local e cada Idade

VOLUME <- Dados %>%
  group_by(Local, Clone, Idade, IdadeAnos) %>%
  summarise(VOL = sum(VOL,na.rm = T))

## `summarise()` has grouped output by 'Local', 'Clone', 'Idade'. You can override using the `.groups` argument.

VOLUME

## # A tibble: 75 x 5
## # Groups:   Local, Clone, Idade [75]
##    Local Clone  Idade IdadeAnos   VOL
##    <dbl> <chr>  <chr>     <dbl> <dbl>
##  1     1 Clone1 Age1       2.33 11.8 
##  2     1 Clone1 Age2       4.25 30.6 
##  3     1 Clone1 Age3       6.25 45.5 
##  4     1 Clone3 Age1       2.33 10.4 
##  5     1 Clone3 Age2       4.25 24.9 
##  6     1 Clone3 Age3       6.25 37.0 
##  7     1 Clone4 Age1       2.33  3.81
##  8     1 Clone4 Age2       4.25 13.2 
##  9     1 Clone4 Age3       6.25 21.7 
## 10     1 Clone6 Age1       2.33  5.71
## # ... with 65 more rows
…
